…
### *Data Summaries*
Summarized racers by Fastest Time

```r
#groupby name, Summarize Data, Arrange by Fastest Time
derby19byname <- group_by(derby19scout, FullName, Class)
derby19Summary <- summarize(derby19byname, AverageFinishTime = mean(FinishTime), FastestTime = min(FinishTime), StandardDeviation = sd(FinishTime))
derby19Summary <- arrange(derby19Summary, AverageFinishTime)
print(derby19Summary)
```

```
## # A tibble: 40 x 5
## # Groups:   FullName [40]
##    FullName      Class       AverageFinishTi~ FastestTime StandardDeviati~
##    <chr>         <fct>                  <dbl>       <dbl>            <dbl>
##  1 Mitch Huber   Wolf                    3.14        3.13          0.00795
##  2 Josh Yaich    Arrow of L~             3.14        3.12          0.0118 
##  3 Andrew Honig~ Arrow of L~             3.15        3.14          0.00449
##  4 Zander Bauer~ Arrow of L~             3.17        3.16          0.0125 
##  5 Aidan Piccia~ Bear                    3.18        3.17          0.00913
##  6 Jaxen Taber   Arrow of L~             3.18        3.15          0.0279 
##  7 Liam Lowe-Ga~ Wolf                    3.21        3.20          0.0166 
##  8 Ethan Swank   Wolf                    3.22        3.19          0.0252 
##  9 Nora Gluntz   Lion                    3.23        3.21          0.0239 
## 10 Logan Rich    Arrow of L~             3.25        3.23          0.0115 
## # ... with 30 more rows
```
…
```r
#summarize time rank by HeatAdjLane
derby19scout %>% group_by(HeatAdjLane) %>%  summarize(RankTime = mean(FinishTimeRank))
```

```
## # A tibble: 36 x 2
##    HeatAdjLane RankTime
##    <chr>          <dbl>
##  1 11              3.57
##  2 12              3.4 
##  3 13              3.11
##  4 14              3.43
##  5 15              2.33
##  6 16              4.33
##  7 21              2.5 
##  8 22              2.57
##  9 23              3   
## 10 24              3.75
## # ... with 26 more rows
```
…
